// Jest Snapshot v1, https://goo.gl/fbAQLP

exports[`Testing in <GifExpertApp /> should show list of categories 1`] = `
<Fragment>
  <h2>
    GifExpertApp
  </h2>
  <AddCategory
    setCategories={[Function]}
  />
  <hr />
  <ol>
    <GifGrid
      category="One Punch"
      key="One Punch"
    />
    <GifGrid
      category="Goku"
      key="Goku"
    />
  </ol>
</Fragment>
`;

exports[`Testing in <GifExpertApp /> should show the component GifExpertApp 1`] = `
<Fragment>
  <h2>
    GifExpertApp
  </h2>
  <AddCategory
    setCategories={[Function]}
  />
  <hr />
  <ol />
</Fragment>
`;
